{
"type": "FeatureCollection",
"crs": { "type": "name", "properties": { "name": "urn:ogc:def:crs:OGC:1.3:CRS84" } },

"features": [
{ "type": "Feature", "properties": { "id": 0, "c": "vinarna", "q": 3, "people": 350, "rate": 6.9 }, "geometry": { "type": "Point", "coordinates": [ 16.7336656698, 48.9437247733 ] } },
{ "type": "Feature", "properties": { "id": 1, "c": "vinarna", "q": 4, "people": 400, "rate": 8.9 }, "geometry": { "type": "Point", "coordinates": [ 16.7653565384, 48.9559721177 ] } },
{ "type": "Feature", "properties": { "id": 2, "c": "kavarna", "q": 2, "people": 170, "rate": 6.7 }, "geometry": { "type": "Point", "coordinates": [ 16.7095861452, 48.9543114608 ] } },
{ "type": "Feature", "properties": { "id": 3, "c": "kavarna", "q": 5, "people": 150, "rate": 7.4 }, "geometry": { "type": "Point", "coordinates": [ 16.7414154019, 48.9347987426 ] } },
{ "type": "Feature", "properties": { "id": 4, "c": "kavarna", "q": 4, "people": 350, "rate": 7.0 }, "geometry": { "type": "Point", "coordinates": [ 16.7314514607, 48.9422025045 ] } },
{ "type": "Feature", "properties": { "id": 5, "c": "restaurace", "q": 2, "people": 350, "rate": 7.1 }, "geometry": { "type": "Point", "coordinates": [ 16.7430068647, 48.9344527724 ] } },
{ "type": "Feature", "properties": { "id": 6, "c": "restaurace", "q": 3, "people": 300, "rate": 4.5 }, "geometry": { "type": "Point", "coordinates": [ 16.7338040579, 48.937428116 ] } },
{ "type": "Feature", "properties": { "id": 7, "c": "restaurace", "q": 4, "people": 480, "rate": 8.7 }, "geometry": { "type": "Point", "coordinates": [ 16.7452902679, 48.946907699 ] } },
{ "type": "Feature", "properties": { "id": 8, "c": "restaurace", "q": 2, "people": 500, "rate": 5.9 }, "geometry": { "type": "Point", "coordinates": [ 16.7608589261, 48.9543114608 ] } },
{ "type": "Feature", "properties": { "id": 9, "c": "restaurace", "q": 4, "people": 260, "rate": 7.6 }, "geometry": { "type": "Point", "coordinates": [ 16.7623811949, 48.9592934315 ] } },
{ "type": "Feature", "properties": { "id": 10, "c": "restaurace", "q": 4, "people": 400, "rate": 4.8 }, "geometry": { "type": "Point", "coordinates": [ 16.7112468021, 48.9570792223 ] } },
{ "type": "Feature", "properties": { "id": 11, "c": "restaurace", "q": 2, "people": 500, "rate": 7.3 }, "geometry": { "type": "Point", "coordinates": [ 16.7071643539, 48.9514053113 ] } },
{ "type": "Feature", "properties": { "id": 12, "c": "restaurace", "q": 3, "people": 250, "rate": 5.7 }, "geometry": { "type": "Point", "coordinates": [ 16.7269538483, 48.9416489522 ] } },
{ "type": "Feature", "properties": { "id": 13, "c": "restaurace", "q": 4, "people": 400, "rate": 5.8 }, "geometry": { "type": "Point", "coordinates": [ 16.7334580877, 48.9404726536 ] } },
{ "type": "Feature", "properties": { "id": 14, "c": "motel", "q": 4, "people": 400, "rate": 8.0 }, "geometry": { "type": "Point", "coordinates": [ 16.7266078781, 48.9352139068 ] } },
{ "type": "Feature", "properties": { "id": 15, "c": "motel", "q": 3, "people": 230, "rate": 3.9 }, "geometry": { "type": "Point", "coordinates": [ 16.7596134334, 48.9289172495 ] } },
{ "type": "Feature", "properties": { "id": 16, "c": "motel", "q": 2, "people": 250, "rate": 2.9 }, "geometry": { "type": "Point", "coordinates": [ 16.7284069231, 48.9486375499 ] } },
{ "type": "Feature", "properties": { "id": 17, "c": "hospoda", "q": 4, "people": 480, "rate": 5.1 }, "geometry": { "type": "Point", "coordinates": [ 16.7087558168, 48.9561796998 ] } },
{ "type": "Feature", "properties": { "id": 18, "c": "hospoda", "q": 2, "people": 150, "rate": 6.4 }, "geometry": { "type": "Point", "coordinates": [ 16.7498570743, 48.9482915797 ] } },
{ "type": "Feature", "properties": { "id": 19, "c": "hospoda", "q": 4, "people": 400, "rate": 5.5 }, "geometry": { "type": "Point", "coordinates": [ 16.7641110458, 48.956594864 ] } },
{ "type": "Feature", "properties": { "id": 20, "c": "hospoda", "q": 2, "people": 200, "rate": 1.3 }, "geometry": { "type": "Point", "coordinates": [ 16.7329045354, 48.9418565343 ] } },
{ "type": "Feature", "properties": { "id": 21, "c": "hospoda", "q": 4, "people": 420, "rate": 9.6 }, "geometry": { "type": "Point", "coordinates": [ 16.7305519382, 48.9337608321 ] } },
{ "type": "Feature", "properties": { "id": 22, "c": "hospoda", "q": 3, "people": 800, "rate": 8.9 }, "geometry": { "type": "Point", "coordinates": [ 16.7330429235, 48.9447626838 ] } },
{ "type": "Feature", "properties": { "id": 23, "c": "hospoda", "q": 2, "people": 540, "rate": 6.0 }, "geometry": { "type": "Point", "coordinates": [ 16.733942446, 48.939434743 ] } },
{ "type": "Feature", "properties": { "id": 24, "c": "hospoda", "q": 2, "people": 820, "rate": 5.2 }, "geometry": { "type": "Point", "coordinates": [ 16.7138761755, 48.9143173079 ] } },
{ "type": "Feature", "properties": { "id": 25, "c": "hospoda", "q": 3, "people": 580, "rate": 6.2 }, "geometry": { "type": "Point", "coordinates": [ 16.7290296694, 48.9446934898 ] } },
{ "type": "Feature", "properties": { "id": 26, "c": "bufet", "q": 3, "people": 250, "rate": 5.0 }, "geometry": { "type": "Point", "coordinates": [ 16.7388552226, 48.94503946 ] } },
{ "type": "Feature", "properties": { "id": 27, "c": "bufet", "q": 1, "people": 150, "rate": 2.3 }, "geometry": { "type": "Point", "coordinates": [ 16.7108316379, 48.9168082932 ] } },
{ "type": "Feature", "properties": { "id": 28, "c": "bufet", "q": 3, "people": 250, "rate": 3.7 }, "geometry": { "type": "Point", "coordinates": [ 16.7313822666, 48.9401266834 ] } },
{ "type": "Feature", "properties": { "id": 29, "c": "bufet", "q": 4, "people": 500, "rate": 6.8 }, "geometry": { "type": "Point", "coordinates": [ 16.739616357, 48.9358366532 ] } },
{ "type": "Feature", "properties": { "id": 30, "c": "bufet", "q": 2, "people": 500, "rate": 4.9 }, "geometry": { "type": "Point", "coordinates": [ 16.7011444728, 48.9568716402 ] } },
{ "type": "Feature", "properties": { "id": 31, "c": "hotel", "q": 4, "people": 950, "rate": 7.5 }, "geometry": { "type": "Point", "coordinates": [ 16.7627963591, 48.9570100283 ] } },
{ "type": "Feature", "properties": { "id": 32, "c": "hotel", "q": 3, "people": 800, "rate": 9.7 }, "geometry": { "type": "Point", "coordinates": [ 16.7357414909, 48.9422716985 ] } },
{ "type": "Feature", "properties": { "id": 33, "c": null, "q": 4, "people": 480, "rate": 4.6 }, "geometry": { "type": "Point", "coordinates": [ 16.7277149827, 48.939365549 ] } },
{ "type": "Feature", "properties": { "id": 34, "c": "hotel", "q": 5, "people": 500, "rate": 7.8 }, "geometry": { "type": "Point", "coordinates": [ 16.7298599978, 48.943102027 ] } },
{ "type": "Feature", "properties": { "id": 35, "c": "hotel", "q": 1, "people": 500, "rate": 6.1 }, "geometry": { "type": "Point", "coordinates": [ 16.7367102074, 48.9370129518 ] } },
{ "type": "Feature", "properties": { "id": 36, "c": "hotel", "q": 2, "people": 200, "rate": 2.6 }, "geometry": { "type": "Point", "coordinates": [ 16.7262619079, 48.9462849526 ] } },
{ "type": "Feature", "properties": { "id": 37, "c": "hotel", "q": 3, "people": 600, "rate": 3.2 }, "geometry": { "type": "Point", "coordinates": [ 16.7077871003, 48.9529967742 ] } }
]
}
