{
"type": "FeatureCollection",
"crs": { "type": "name", "properties": { "name": "urn:ogc:def:crs:OGC:1.3:CRS84" } },
                                                                                
"features": [
{ "type": "Feature", "properties": { "id": 0, "dens": 69, "c": "J" }, "geometry": { "type": "Polygon", "coordinates": [ [ [ 16.7342114696, 48.9367122936 ], [ 16.7347931578, 48.9372185778 ], [ 16.7352340576, 48.9374452915 ], [ 16.7357518663, 48.93771409 ], [ 16.7363981865, 48.937832582 ], [ 16.7367644347, 48.9374340179 ], [ 16.7371845429, 48.9370031377 ], [ 16.7372491749, 48.9366584335 ], [ 16.7382617434, 48.9359259372 ], [ 16.7392096798, 48.9352257569 ], [ 16.7390696437, 48.9350964928 ], [ 16.7388326596, 48.9350103168 ], [ 16.7384987275, 48.9352149849 ], [ 16.7382725154, 48.9351180369 ], [ 16.7367644347, 48.9361090613 ], [ 16.7367644347, 48.9361090613 ], [ 16.7360642544, 48.9364429934 ], [ 16.7360642544, 48.9364429934 ], [ 16.7357518663, 48.9362598694 ], [ 16.735116318, 48.9362598694 ], [ 16.7342114696, 48.9367122936 ] ] ] } },
{ "type": "Feature", "properties": { "id": 1, "dens": 33, "c": "I" }, "geometry": { "type": "Polygon", "coordinates": [ [ [ 16.7332635332, 48.9371862618 ], [ 16.7334789733, 48.9374986499 ], [ 16.7338021334, 48.9374663339 ], [ 16.7342653296, 48.9380587941 ], [ 16.7340498895, 48.9382203742 ], [ 16.7342976456, 48.9386189384 ], [ 16.735105546, 48.9382957782 ], [ 16.7339960295, 48.9368092416 ], [ 16.7332635332, 48.9371862618 ] ] ] } },
{ "type": "Feature", "properties": { "id": 2, "dens": 50, "c": "I" }, "geometry": { "type": "Polygon", "coordinates": [ [ [ 16.73072134, 48.9379726181 ], [ 16.7311414482, 48.937843354 ], [ 16.7314430644, 48.937681774 ], [ 16.7323263687, 48.9373693858 ], [ 16.7331450411, 48.9370246817 ], [ 16.7339206254, 48.9367015215 ], [ 16.732918829, 48.935559689 ], [ 16.7323586848, 48.935419653 ], [ 16.7315292404, 48.9357859011 ], [ 16.7310660442, 48.9359259372 ], [ 16.730678252, 48.9357751291 ], [ 16.7301073358, 48.9359797972 ], [ 16.7294933315, 48.9361844653 ], [ 16.7300642478, 48.9370569977 ], [ 16.73072134, 48.9379726181 ] ] ] } },
{ "type": "Feature", "properties": { "id": 3, "dens": 21, "c": "I" }, "geometry": { "type": "Polygon", "coordinates": [ [ [ 16.7299888437, 48.9358505332 ], [ 16.73066748, 48.9356350931 ], [ 16.7300534758, 48.9352365289 ], [ 16.7289870473, 48.9351503529 ], [ 16.7290624513, 48.9353119329 ], [ 16.7299888437, 48.9358505332 ] ] ] } },
{ "type": "Feature", "properties": { "id": 4, "dens": 33, "c": "J" }, "geometry": { "type": "Polygon", "coordinates": [ [ [ 16.7272527545, 48.9349564568 ], [ 16.7276944067, 48.9358074452 ], [ 16.7278452148, 48.9357320411 ], [ 16.7280714269, 48.9361090613 ], [ 16.7277913548, 48.9363245014 ], [ 16.7279744788, 48.9365938015 ], [ 16.7291378554, 48.9360336573 ], [ 16.7287608352, 48.935462741 ], [ 16.7290301353, 48.9356674091 ], [ 16.7291163113, 48.935570461 ], [ 16.7288362392, 48.9352149849 ], [ 16.7287931512, 48.9350534048 ], [ 16.7278667588, 48.9349349128 ], [ 16.7272527545, 48.9349564568 ] ] ] } },
{ "type": "Feature", "properties": { "id": 5, "dens": 15, "c": "J" }, "geometry": { "type": "Polygon", "coordinates": [ [ [ 16.7272312105, 48.9346009806 ], [ 16.7279852508, 48.9347948767 ], [ 16.7297303156, 48.9351072648 ], [ 16.7298918957, 48.9347517887 ], [ 16.728416131, 48.9339977484 ], [ 16.7279421628, 48.9337930803 ], [ 16.7276836347, 48.9340946964 ], [ 16.7272312105, 48.9346009806 ] ] ] } },
{ "type": "Feature", "properties": { "id": 6, "dens": 46, "c": "I" }, "geometry": { "type": "Polygon", "coordinates": [ [ [ 16.7281683749, 48.9336745882 ], [ 16.7302150558, 48.9344609446 ], [ 16.7309044641, 48.9347302447 ], [ 16.730699796, 48.9348487367 ], [ 16.7300642478, 48.9349241408 ], [ 16.7303658639, 48.9351611249 ], [ 16.7308075161, 48.9352580729 ], [ 16.7313892043, 48.9352149849 ], [ 16.7320893846, 48.9352796169 ], [ 16.7326926169, 48.9352903889 ], [ 16.7332635332, 48.935538145 ], [ 16.7335328333, 48.9359151652 ], [ 16.7342114696, 48.9367122936 ], [ 16.735116318, 48.9362598694 ], [ 16.7357518663, 48.9362598694 ], [ 16.7360642544, 48.9364429934 ], [ 16.7367644347, 48.9361090613 ], [ 16.737346123, 48.9357428131 ], [ 16.7382725154, 48.9351180369 ], [ 16.7384987275, 48.9352149849 ], [ 16.7388326596, 48.9350103168 ], [ 16.7390696437, 48.9350964928 ], [ 16.739705192, 48.9347194727 ], [ 16.7406962164, 48.9341808724 ], [ 16.7405023203, 48.9340192924 ], [ 16.7410732366, 48.9337499923 ], [ 16.7413748527, 48.9337823083 ], [ 16.741934997, 48.9335453242 ], [ 16.7417518729, 48.9334052881 ], [ 16.7412994487, 48.9335776402 ], [ 16.7410516926, 48.9335130081 ], [ 16.7404269163, 48.9337715363 ], [ 16.7390588717, 48.9345040326 ], [ 16.7383802354, 48.9348595087 ], [ 16.7380355313, 48.9348487367 ], [ 16.7376908271, 48.9346763847 ], [ 16.7380032152, 48.9343316805 ], [ 16.7378200912, 48.9339654323 ], [ 16.7374786001, 48.9339180472 ], [ 16.7370414452, 48.9344176528 ], [ 16.7363544875, 48.9352607372 ], [ 16.7360110087, 48.9355417654 ], [ 16.7362295861, 48.9359164696 ], [ 16.7360110087, 48.9359789203 ], [ 16.7356987552, 48.9356354414 ], [ 16.7351054735, 48.9359476949 ], [ 16.7347716138, 48.9359474812 ], [ 16.7333820252, 48.9345686646 ], [ 16.7321647887, 48.9339008003 ], [ 16.7303658639, 48.9330929 ], [ 16.7297074699, 48.9333823948 ], [ 16.7283509974, 48.9333678131 ], [ 16.7281683749, 48.9336745882 ] ] ] } },
{ "type": "Feature", "properties": { "id": 7, "dens": 26, "c": "B" }, "geometry": { "type": "Polygon", "coordinates": [ [ [ 16.72610015, 48.9334699201 ], [ 16.7259277979, 48.9341916444 ], [ 16.7265094862, 48.9342347325 ], [ 16.7268326463, 48.9338469403 ], [ 16.7275005106, 48.9340946964 ], [ 16.7278667588, 48.9335991842 ], [ 16.7269403664, 48.9334483761 ], [ 16.7262617301, 48.9334376041 ], [ 16.72610015, 48.9334699201 ] ] ] } },
{ "type": "Feature", "properties": { "id": 8, "dens": 63, "c": "J" }, "geometry": { "type": "Polygon", "coordinates": [ [ [ 16.7300319317, 48.946074961 ], [ 16.7303084132, 48.9464106885 ], [ 16.7310193655, 48.9457787309 ], [ 16.7316118258, 48.946015715 ], [ 16.7319080559, 48.9458182282 ], [ 16.7323030294, 48.9454825007 ], [ 16.7325795109, 48.9453640087 ], [ 16.7324017728, 48.9447517997 ], [ 16.7322437834, 48.9441790882 ], [ 16.7300319317, 48.946074961 ] ] ] } },
{ "type": "Feature", "properties": { "id": 9, "dens": 65, "c": "P" }, "geometry": { "type": "Polygon", "coordinates": [ [ [ 16.7303084132, 48.9464106885 ], [ 16.7301899211, 48.9465884266 ], [ 16.730565146, 48.9471808868 ], [ 16.7310786115, 48.947714101 ], [ 16.7314933337, 48.94832631 ], [ 16.7321647887, 48.9488200269 ], [ 16.732934987, 48.9489187702 ], [ 16.7330337304, 48.9486027914 ], [ 16.7329744844, 48.9484645507 ], [ 16.7329152383, 48.9481683206 ], [ 16.7332114685, 48.9480103312 ], [ 16.7332509658, 48.9485237967 ], [ 16.7337051854, 48.9484842994 ], [ 16.7344951324, 48.9479905825 ], [ 16.7345346297, 48.9469834001 ], [ 16.732994233, 48.9471216408 ], [ 16.7321845374, 48.9472006355 ], [ 16.7318488099, 48.9465686779 ], [ 16.7303084132, 48.9464106885 ] ] ] } },
{ "type": "Feature", "properties": { "id": 10, "dens": 22, "c": "J" }, "geometry": { "type": "Polygon", "coordinates": [ [ [ 16.7311378576, 48.94370512 ], [ 16.731295847, 48.9439223554 ], [ 16.7315723284, 48.9440408474 ], [ 16.7320067993, 48.9439618527 ], [ 16.7320660453, 48.9434681358 ], [ 16.7317303178, 48.9432311517 ], [ 16.7311378576, 48.94370512 ] ] ] } },
{ "type": "Feature", "properties": { "id": 11, "dens": 36, "c": "J" }, "geometry": { "type": "Polygon", "coordinates": [ [ [ 16.7284915351, 48.9455614954 ], [ 16.7289852519, 48.9458577256 ], [ 16.7293802255, 48.9455417468 ], [ 16.7289062572, 48.9452652653 ], [ 16.7284915351, 48.9455614954 ] ] ] } },
{ "type": "Feature", "properties": { "id": 12, "dens": 48, "c": "I" }, "geometry": { "type": "Polygon", "coordinates": [ [ [ 16.7275435987, 48.9450677786 ], [ 16.7283532943, 48.9453640087 ], [ 16.7288272625, 48.9450282812 ], [ 16.7296369582, 48.9456207415 ], [ 16.7293209794, 48.9459762176 ], [ 16.7295777122, 48.9462132017 ], [ 16.7317698152, 48.9442580829 ], [ 16.7307033867, 48.9436853713 ], [ 16.7292419847, 48.9442778315 ], [ 16.7275435987, 48.9450677786 ] ] ] } },
{ "type": "Feature", "properties": { "id": 13, "dens": 96, "c": "B" }, "geometry": { "type": "Polygon", "coordinates": [ [ [ 16.7334484526, 48.9386494591 ], [ 16.7334484526, 48.9397553849 ], [ 16.7333102118, 48.9401701071 ], [ 16.732934987, 48.9411575408 ], [ 16.7322437834, 48.942184472 ], [ 16.7327572489, 48.942302964 ], [ 16.7334287039, 48.9420067339 ], [ 16.7339421695, 48.9420067339 ], [ 16.7346728704, 48.9415327657 ], [ 16.7351665873, 48.940663824 ], [ 16.7354035714, 48.9395381495 ], [ 16.7349691006, 48.9394591548 ], [ 16.7351073413, 48.9389654379 ], [ 16.7334484526, 48.9386494591 ] ] ] } },
{ "type": "Feature", "properties": { "id": 14, "dens": 89, "c": "B" }, "geometry": { "type": "Polygon", "coordinates": [ [ [ 16.7309403708, 48.9381754909 ], [ 16.7317698152, 48.9396171442 ], [ 16.7320067993, 48.9394789034 ], [ 16.7316513231, 48.9388074485 ], [ 16.7324215215, 48.9383532289 ], [ 16.7330337304, 48.9391629246 ], [ 16.7330139817, 48.9395184008 ], [ 16.7332114685, 48.9395578981 ], [ 16.7332114685, 48.9388469458 ], [ 16.7329547357, 48.938471721 ], [ 16.7336261907, 48.9381952395 ], [ 16.7330732277, 48.9372868005 ], [ 16.7319080559, 48.9376620253 ], [ 16.7314340877, 48.9379582554 ], [ 16.7309403708, 48.9381754909 ] ] ] } },
{ "type": "Feature", "properties": { "id": 15, "dens": 36, "c": "I" }, "geometry": { "type": "Polygon", "coordinates": [ [ [ 16.7296962043, 48.9408218134 ], [ 16.7297159529, 48.9413747763 ], [ 16.7311181089, 48.9415525143 ], [ 16.7315525797, 48.9413747763 ], [ 16.7316118258, 48.9409008081 ], [ 16.7305848947, 48.9409600541 ], [ 16.7296962043, 48.9408218134 ] ] ] } },
{ "type": "Feature", "properties": { "id": 16, "dens": 33, "c": "I" }, "geometry": { "type": "Polygon", "coordinates": [ [ [ 16.7295184662, 48.9403083478 ], [ 16.7299331884, 48.9406243266 ], [ 16.7314340877, 48.9405650806 ], [ 16.7319475533, 48.9403675938 ], [ 16.7316513231, 48.9397948822 ], [ 16.730683638, 48.9381754909 ], [ 16.7286297758, 48.9387284538 ], [ 16.7295184662, 48.9403083478 ] ] ] } },
{ "type": "Feature", "properties": { "id": 17, "dens": 26, "c": "I" }, "geometry": { "type": "Polygon", "coordinates": [ [ [ 16.7292814821, 48.9420067339 ], [ 16.7292617334, 48.9420659799 ], [ 16.7295382149, 48.9422634667 ], [ 16.7306865877, 48.9429000407 ], [ 16.7308416274, 48.9427966809 ], [ 16.7318290612, 48.942184472 ], [ 16.7323227781, 48.9415920117 ], [ 16.7325992595, 48.9410587975 ], [ 16.7319457662, 48.9412867602 ], [ 16.7317051752, 48.9414512232 ], [ 16.731414339, 48.9419277392 ], [ 16.730565146, 48.9424807021 ], [ 16.7293999741, 48.9417697498 ], [ 16.7292814821, 48.9420067339 ] ] ] } },
{ "type": "Feature", "properties": { "id": 18, "dens": 22, "c": "I" }, "geometry": { "type": "Polygon", "coordinates": [ [ [ 16.7276620907, 48.9410193001 ], [ 16.7290050006, 48.9419277392 ], [ 16.7293407281, 48.9413747763 ], [ 16.7290795203, 48.941060774 ], [ 16.728151582, 48.9410658693 ], [ 16.7276620907, 48.9410193001 ] ] ] } },
{ "type": "Feature", "properties": { "id": 19, "dens": 23, "c": "P" }, "geometry": { "type": "Polygon", "coordinates": [ [ [ 16.7235346176, 48.9360228852 ], [ 16.7239493397, 48.9365955968 ], [ 16.7246602921, 48.9372473031 ], [ 16.7258847099, 48.937069565 ], [ 16.7274448553, 48.9366153455 ], [ 16.7270696304, 48.9356279117 ], [ 16.7272868659, 48.9354501737 ], [ 16.726733903, 48.93475897 ], [ 16.726003202, 48.9345614833 ], [ 16.7255687311, 48.9345219859 ], [ 16.7257464692, 48.9350552002 ], [ 16.7242653185, 48.9355291684 ], [ 16.7235938636, 48.9358648958 ], [ 16.7235346176, 48.9360228852 ] ] ] } },
{ "type": "Feature", "properties": { "id": 20, "dens": 12, "c": "J" }, "geometry": { "type": "Polygon", "coordinates": [ [ [ 16.7224484404, 48.9365955968 ], [ 16.7235938636, 48.9376620253 ], [ 16.7244628053, 48.9373460465 ], [ 16.7232383874, 48.9361413773 ], [ 16.7224484404, 48.9365955968 ] ] ] } },
{ "type": "Feature", "properties": { "id": 21, "dens": 38, "c": "I" }, "geometry": { "type": "Polygon", "coordinates": [ [ [ 16.7251935063, 48.93774102 ], [ 16.7262796834, 48.939320914 ], [ 16.7268326463, 48.9392814167 ], [ 16.7270301331, 48.9394591548 ], [ 16.7279637148, 48.9397712683 ], [ 16.7285310324, 48.9390641812 ], [ 16.7284915351, 48.9385507157 ], [ 16.7287087705, 48.9381557422 ], [ 16.7292024874, 48.9380964962 ], [ 16.7293209794, 48.9364771048 ], [ 16.7292419847, 48.9362598694 ], [ 16.7282575419, 48.9366564922 ], [ 16.7280570642, 48.9372078058 ], [ 16.7275633473, 48.9374250412 ], [ 16.7273658606, 48.937010319 ], [ 16.7251935063, 48.93774102 ] ] ] } },
{ "type": "Feature", "properties": { "id": 22, "dens": 36, "c": "I" }, "geometry": { "type": "Polygon", "coordinates": [ [ [ 16.7248182815, 48.9377607687 ], [ 16.7233963768, 48.9406243266 ], [ 16.7246207947, 48.9408613107 ], [ 16.725390993, 48.9407428187 ], [ 16.7269906357, 48.9409008081 ], [ 16.7273461119, 48.9403280965 ], [ 16.7275041013, 48.9398738769 ], [ 16.7263981755, 48.9396763902 ], [ 16.7258970372, 48.9393526731 ], [ 16.7253514957, 48.938530967 ], [ 16.7248182815, 48.9377607687 ] ] ] } },
{ "type": "Feature", "properties": { "id": 23, "dens": 28, "c": "I" }, "geometry": { "type": "Polygon", "coordinates": [ [ [ 16.7273263632, 48.9409798028 ], [ 16.7270498818, 48.9411575408 ], [ 16.728373043, 48.942184472 ], [ 16.7300319317, 48.9431719057 ], [ 16.7302714388, 48.9428941019 ], [ 16.7273263632, 48.9409798028 ] ] ] } },
{ "type": "Feature", "properties": { "id": 24, "dens": 69, "c": "I" }, "geometry": { "type": "Polygon", "coordinates": [ [ [ 16.7251145116, 48.9428164296 ], [ 16.7254699877, 48.9432903978 ], [ 16.7243640619, 48.9436656226 ], [ 16.7245812974, 48.9442383342 ], [ 16.7249762709, 48.9446925537 ], [ 16.7266351596, 48.9441593395 ], [ 16.72752385, 48.943882858 ], [ 16.7278003314, 48.9439618527 ], [ 16.7274843526, 48.9435273819 ], [ 16.7262796834, 48.9426979375 ], [ 16.7255687311, 48.94236221 ], [ 16.7252330036, 48.9425004508 ], [ 16.7251145116, 48.9428164296 ] ] ] } },
{ "type": "Feature", "properties": { "id": 25, "dens": 56, "c": "B" }, "geometry": { "type": "Polygon", "coordinates": [ [ [ 16.7251935063, 48.9415525143 ], [ 16.7250947629, 48.941513017 ], [ 16.724601046, 48.9415920117 ], [ 16.7248972762, 48.9423424614 ], [ 16.725390993, 48.9422634667 ], [ 16.7251935063, 48.9415525143 ] ] ] } },
{ "type": "Feature", "properties": { "id": 26, "dens": 45, "c": "I" }, "geometry": { "type": "Polygon", "coordinates": [ [ [ 16.7254502391, 48.9415525143 ], [ 16.7258254639, 48.9422832153 ], [ 16.7280175669, 48.94370512 ], [ 16.729044498, 48.9434878845 ], [ 16.727642342, 48.9424214561 ], [ 16.7266944056, 48.9416907551 ], [ 16.7262994321, 48.9413352789 ], [ 16.7257464692, 48.9414340223 ], [ 16.7254502391, 48.9415525143 ] ] ] } },
{ "type": "Feature", "properties": { "id": 27, "dens": 39, "c": "I" }, "geometry": { "type": "Polygon", "coordinates": [ [ [ 16.7240283344, 48.94534426 ], [ 16.7250552656, 48.9463514424 ], [ 16.7271683738, 48.9450282812 ], [ 16.7285705298, 48.9444160723 ], [ 16.7304664026, 48.9435471306 ], [ 16.7303676592, 48.9434088898 ], [ 16.7307428841, 48.9432114031 ], [ 16.7304701187, 48.943040078 ], [ 16.729775199, 48.9435076332 ], [ 16.7289457546, 48.9437248686 ], [ 16.7278003314, 48.9439618527 ], [ 16.7262401861, 48.9444753183 ], [ 16.7246602921, 48.9449887839 ], [ 16.7240283344, 48.94534426 ] ] ] } },
{ "type": "Feature", "properties": { "id": 28, "dens": 26, "c": "I" }, "geometry": { "type": "Polygon", "coordinates": [ [ [ 16.7271486251, 48.9453837574 ], [ 16.7278990748, 48.9458972229 ], [ 16.7276225934, 48.9462526991 ], [ 16.7289260059, 48.946924154 ], [ 16.7293604768, 48.9463711911 ], [ 16.7277805828, 48.94534426 ], [ 16.7275435987, 48.9450677786 ], [ 16.7271486251, 48.9453837574 ] ] ] } },
{ "type": "Feature", "properties": { "id": 29, "dens": 25, "c": "J" }, "geometry": { "type": "Polygon", "coordinates": [ [ [ 16.7287087705, 48.9475561116 ], [ 16.7292222361, 48.947595609 ], [ 16.7293407281, 48.9473981222 ], [ 16.7298739423, 48.9479313365 ], [ 16.7298739423, 48.9479313365 ], [ 16.7309996168, 48.9486620375 ], [ 16.7312563496, 48.9485237967 ], [ 16.7301504238, 48.9471216408 ], [ 16.729834445, 48.9468254107 ], [ 16.7294987175, 48.9466871699 ], [ 16.7287087705, 48.9475561116 ] ] ] } },
{ "type": "Feature", "properties": { "id": 30, "dens": 36, "c": "P" }, "geometry": { "type": "Polygon", "coordinates": [ [ [ 16.7276225934, 48.9488595242 ], [ 16.7278990748, 48.9487212835 ], [ 16.728254551, 48.9488002782 ], [ 16.7280373155, 48.949057011 ], [ 16.7285112837, 48.9492742464 ], [ 16.7288075139, 48.9487805295 ], [ 16.72916299, 48.9488595242 ], [ 16.7298739423, 48.9479313365 ], [ 16.7287087705, 48.9475561116 ], [ 16.7276225934, 48.9488595242 ] ] ] } },
{ "type": "Feature", "properties": { "id": 31, "dens": 69, "c": "P" }, "geometry": { "type": "Polygon", "coordinates": [ [ [ 16.7245615487, 48.9470623948 ], [ 16.7273658606, 48.9481880693 ], [ 16.7281360589, 48.9473191275 ], [ 16.7278595775, 48.9471216408 ], [ 16.7281558076, 48.9467069186 ], [ 16.7273461119, 48.9462724477 ], [ 16.7263389295, 48.9458577256 ], [ 16.7252527523, 48.9464896832 ], [ 16.7245615487, 48.9470623948 ] ] ] } },
{ "type": "Feature", "properties": { "id": 32, "dens": 63, "c": "P" }, "geometry": { "type": "Polygon", "coordinates": [ [ [ 16.7233766282, 48.9479510852 ], [ 16.7256674745, 48.9495309792 ], [ 16.7268128977, 48.9487410322 ], [ 16.7245023026, 48.9473191275 ], [ 16.7233766282, 48.9479510852 ] ] ] } },
{ "type": "Feature", "properties": { "id": 33, "dens": 26, "c": "P" }, "geometry": { "type": "Polygon", "coordinates": [ [ [ 16.7224681891, 48.9465489292 ], [ 16.7235741149, 48.9472993789 ], [ 16.7250552656, 48.9463514424 ], [ 16.7239098424, 48.9455614954 ], [ 16.7224681891, 48.9465489292 ] ] ] } },
{ "type": "Feature", "properties": { "id": 34, "dens": 20, "c": "J" }, "geometry": { "type": "Polygon", "coordinates": [ [ [ 16.7233371308, 48.9443765749 ], [ 16.723751853, 48.9449887839 ], [ 16.7240678318, 48.9448900405 ], [ 16.7237321043, 48.9442580829 ], [ 16.7233371308, 48.9443765749 ] ] ] } },
{ "type": "Feature", "properties": { "id": 35, "dens": 32, "c": "I" }, "geometry": { "type": "Polygon", "coordinates": [ [ [ 16.7231396441, 48.9439223554 ], [ 16.7233568795, 48.9441395908 ], [ 16.723811099, 48.9440013501 ], [ 16.7243838106, 48.9448307944 ], [ 16.7247392868, 48.9447123024 ], [ 16.7243838106, 48.9442778315 ], [ 16.7241073291, 48.9437446173 ], [ 16.7231396441, 48.9439223554 ] ] ] } },
{ "type": "Feature", "properties": { "id": 36, "dens": 58, "c": "B" }, "geometry": { "type": "Polygon", "coordinates": [ [ [ 16.7233173821, 48.9419079905 ], [ 16.7233568795, 48.9421054773 ], [ 16.7231396441, 48.942184472 ], [ 16.7233371308, 48.943092911 ], [ 16.723021152, 48.9433298951 ], [ 16.7231001467, 48.9437248686 ], [ 16.7238505964, 48.9435866279 ], [ 16.7249367735, 48.9433496438 ], [ 16.7242850672, 48.9415920117 ], [ 16.7235543662, 48.9417105037 ], [ 16.7233173821, 48.9419079905 ] ] ] } },
{ "type": "Feature", "properties": { "id": 37, "dens": 28, "c": "I" }, "geometry": { "type": "Polygon", "coordinates": [ [ [ 16.722171959, 48.9441988368 ], [ 16.722961906, 48.9452652653 ], [ 16.7234951202, 48.9450875272 ], [ 16.7230014033, 48.9442975802 ], [ 16.7228631626, 48.9439421041 ], [ 16.722171959, 48.9441988368 ] ] ] } },
{ "type": "Feature", "properties": { "id": 38, "dens": 12, "c": "J" }, "geometry": { "type": "Polygon", "coordinates": [ [ [ 16.7197231232, 48.9401898557 ], [ 16.7195058878, 48.9406243266 ], [ 16.7204143269, 48.9417500011 ], [ 16.7213030172, 48.9414932683 ], [ 16.7224286917, 48.9411575408 ], [ 16.7227249219, 48.9408810594 ], [ 16.722349697, 48.9407033213 ], [ 16.7212042739, 48.9404465885 ], [ 16.7197231232, 48.9401898557 ] ] ] } },
{ "type": "Feature", "properties": { "id": 39, "dens": 32, "c": "I" }, "geometry": { "type": "Polygon", "coordinates": [ [ [ 16.7208882951, 48.942302964 ], [ 16.7213030172, 48.9427374349 ], [ 16.721441258, 48.9430731623 ], [ 16.7222707023, 48.9440210988 ], [ 16.7227446705, 48.943764366 ], [ 16.7225076864, 48.9428164296 ], [ 16.7221522103, 48.9417697498 ], [ 16.7208882951, 48.942302964 ] ] ] } },
{ "type": "Feature", "properties": { "id": 40, "dens": 22, "c": "J" }, "geometry": { "type": "Polygon", "coordinates": [ [ [ 16.7082576298, 48.9588491773 ], [ 16.7085169651, 48.9592057634 ], [ 16.7090356358, 48.9591895549 ], [ 16.7090194273, 48.9587033012 ], [ 16.7083386721, 48.9586708843 ], [ 16.7082576298, 48.9588491773 ] ] ] } },
{ "type": "Feature", "properties": { "id": 41, "dens": 30, "c": "I" }, "geometry": { "type": "Polygon", "coordinates": [ [ [ 16.7062580464, 48.9501571219 ], [ 16.7078362099, 48.9509232417 ], [ 16.7083224636, 48.9519443745 ], [ 16.7088411343, 48.952495462 ], [ 16.7090680527, 48.9533707187 ], [ 16.7088573427, 48.9535165948 ], [ 16.7093760134, 48.9551374406 ], [ 16.7094894726, 48.9556885281 ], [ 16.7097488079, 48.9562558241 ], [ 16.7109806506, 48.9567582863 ], [ 16.7109320253, 48.9570824555 ], [ 16.7114669044, 48.9573255823 ], [ 16.7117262397, 48.9571797062 ], [ 16.7114344874, 48.9568231201 ], [ 16.711418279, 48.9564503256 ], [ 16.7113048198, 48.955931655 ], [ 16.7103323123, 48.9554616097 ], [ 16.7106564815, 48.9552022744 ], [ 16.7102350616, 48.9549915645 ], [ 16.71067269, 48.9547322291 ], [ 16.7113048198, 48.9545377276 ], [ 16.7112886113, 48.9537597217 ], [ 16.7104943969, 48.9537597217 ], [ 16.7101540193, 48.9523820028 ], [ 16.7097488079, 48.9514419123 ], [ 16.7097325994, 48.9512149939 ], [ 16.7098460586, 48.9509070332 ], [ 16.7097001825, 48.9503883626 ], [ 16.7093598049, 48.9504369879 ], [ 16.7089059681, 48.950226278 ], [ 16.7087114666, 48.9504369879 ], [ 16.7080307114, 48.9503721541 ], [ 16.7072040801, 48.9502911118 ], [ 16.7068404703, 48.9498243082 ], [ 16.7062580464, 48.9501571219 ] ] ] } },
{ "type": "Feature", "properties": { "id": 42, "dens": 24, "c": "I" }, "geometry": { "type": "Polygon", "coordinates": [ [ [ 16.7061667388, 48.9559640719 ], [ 16.7065071164, 48.9565475764 ], [ 16.7068312856, 48.9564179087 ], [ 16.7068637025, 48.9562071988 ], [ 16.7072202885, 48.9562558241 ], [ 16.7074958323, 48.9563368664 ], [ 16.7082414213, 48.9562234072 ], [ 16.7085331736, 48.9568393286 ], [ 16.709149095, 48.9568069117 ], [ 16.7090518442, 48.9560613226 ], [ 16.7091815119, 48.9557371535 ], [ 16.7089708019, 48.9555912774 ], [ 16.7078524184, 48.9558181958 ], [ 16.7069933701, 48.9558344042 ], [ 16.7061667388, 48.9559640719 ] ] ] } },
{ "type": "Feature", "properties": { "id": 43, "dens": 28, "c": "I" }, "geometry": { "type": "Polygon", "coordinates": [ [ [ 16.7050645637, 48.9554778182 ], [ 16.7056318597, 48.955364359 ], [ 16.7058749866, 48.9557371535 ], [ 16.7063450318, 48.955720945 ], [ 16.7062153642, 48.9554454013 ], [ 16.7052266483, 48.9532248426 ], [ 16.7048376453, 48.9517822899 ], [ 16.7037354702, 48.951928166 ], [ 16.7042541408, 48.9534031356 ], [ 16.7050645637, 48.9554778182 ] ] ] } },
{ "type": "Feature", "properties": { "id": 44, "dens": 26, "c": "I" }, "geometry": { "type": "Polygon", "coordinates": [ [ [ 16.7059560289, 48.9497886496 ], [ 16.7053076906, 48.9491727283 ], [ 16.7040758478, 48.9491889367 ], [ 16.7033140503, 48.9494158551 ], [ 16.703443718, 48.9496265651 ], [ 16.7042541408, 48.9494158551 ], [ 16.7048862707, 48.9493510213 ], [ 16.7051942314, 48.9501290272 ], [ 16.7054211498, 48.9509556586 ], [ 16.7057615274, 48.9516850391 ], [ 16.7059560289, 48.9527710058 ], [ 16.706101905, 48.9531762172 ], [ 16.7071392462, 48.9556236943 ], [ 16.7078362099, 48.9556074858 ], [ 16.7089870104, 48.9554616097 ], [ 16.7089059681, 48.9549429391 ], [ 16.7085169651, 48.9537273048 ], [ 16.7088573427, 48.9535165948 ], [ 16.7086952582, 48.9529979242 ], [ 16.7087763004, 48.9528034227 ], [ 16.7083548805, 48.9522523352 ], [ 16.7080955452, 48.952106459 ], [ 16.7077875845, 48.9513122446 ], [ 16.7074796238, 48.9509880755 ], [ 16.7067178264, 48.9506801148 ], [ 16.7064260741, 48.9505342387 ], [ 16.7060856965, 48.9501776526 ], [ 16.7060370711, 48.9499831511 ], [ 16.7059560289, 48.9497886496 ] ] ] } },
{ "type": "Feature", "properties": { "id": 45, "dens": 20, "c": "I" }, "geometry": { "type": "Polygon", "coordinates": [ [ [ 16.7045523764, 48.9456641375 ], [ 16.7041779611, 48.9461217563 ], [ 16.7051764021, 48.9468289853 ], [ 16.704760385, 48.9472866041 ], [ 16.7052180038, 48.9479938331 ], [ 16.7056340208, 48.948576257 ], [ 16.7062580464, 48.9501571219 ], [ 16.7068404703, 48.9498243082 ], [ 16.7060084362, 48.9487010621 ], [ 16.7057172243, 48.9482434434 ], [ 16.7066324618, 48.9482850451 ], [ 16.7063828516, 48.9479106297 ], [ 16.7065492584, 48.9473698075 ], [ 16.7053012072, 48.9459969512 ], [ 16.7045523764, 48.9456641375 ] ] ] } },
{ "type": "Feature", "properties": { "id": 46, "dens": 15, "c": "I" }, "geometry": { "type": "Polygon", "coordinates": [ [ [ 16.7033043252, 48.9465377734 ], [ 16.7035123338, 48.9468289853 ], [ 16.7038035457, 48.9472034007 ], [ 16.7040947577, 48.9479106297 ], [ 16.7036787406, 48.9485346553 ], [ 16.7037203423, 48.9487426639 ], [ 16.7043443679, 48.9484098502 ], [ 16.7048019867, 48.9481186382 ], [ 16.704053156, 48.9469953921 ], [ 16.7037203423, 48.9467457819 ], [ 16.7033043252, 48.9465377734 ] ] ] } },
{ "type": "Feature", "properties": { "id": 47, "dens": 45, "c": "B" }, "geometry": { "type": "Polygon", "coordinates": [ [ [ 16.7008914262, 48.9568133951 ], [ 16.7003090023, 48.9576038275 ], [ 16.6996647014, 48.9577429891 ], [ 16.6996017733, 48.9585190651 ], [ 16.7002892084, 48.958804651 ], [ 16.7012571943, 48.9590856792 ], [ 16.7020978757, 48.9590598873 ], [ 16.7025554945, 48.9583526582 ], [ 16.7019730706, 48.9580614463 ], [ 16.702056274, 48.957104607 ], [ 16.7013074433, 48.9564805814 ], [ 16.7007666211, 48.9566885899 ], [ 16.7008914262, 48.9568133951 ] ] ] } },
{ "type": "Feature", "properties": { "id": 48, "dens": 10, "c": "P" }, "geometry": { "type": "Polygon", "coordinates": [ [ [ 16.6988529426, 48.9744525189 ], [ 16.6999345869, 48.9749933411 ], [ 16.7006002143, 48.9744109172 ], [ 16.6996849767, 48.9738284933 ], [ 16.6988529426, 48.9744525189 ] ] ] } },
{ "type": "Feature", "properties": { "id": 49, "dens": 12, "c": "P" }, "geometry": { "type": "Polygon", "coordinates": [ [ [ 16.7005586126, 48.9701259414 ], [ 16.7000177904, 48.9703755516 ], [ 16.6973136794, 48.9720396199 ], [ 16.6992273579, 48.9733708746 ], [ 16.7024306894, 48.9713323909 ], [ 16.7005586126, 48.9701259414 ] ] ] } },
{ "type": "Feature", "properties": { "id": 50, "dens": 20, "c": "J" }, "geometry": { "type": "Polygon", "coordinates": [ [ [ 16.7694943351, 48.955444277 ], [ 16.7701289186, 48.9561264543 ], [ 16.7703351583, 48.9567610378 ], [ 16.7715567316, 48.9573638922 ], [ 16.7721913151, 48.9576335902 ], [ 16.7722865027, 48.9572211109 ], [ 16.7718740234, 48.9568562254 ], [ 16.7722071797, 48.9566975795 ], [ 16.7716043254, 48.9561105897 ], [ 16.7720168047, 48.9559519438 ], [ 16.7715567316, 48.9553490895 ], [ 16.7708269605, 48.9551111206 ], [ 16.7703192937, 48.9555553291 ], [ 16.7700020019, 48.9554760062 ], [ 16.7694943351, 48.955444277 ] ] ] } },
{ "type": "Feature", "properties": { "id": 51, "dens": 30, "c": "I" }, "geometry": { "type": "Polygon", "coordinates": [ [ [ 16.7643542084, 48.9553808186 ], [ 16.7647508231, 48.9561581835 ], [ 16.7651315733, 48.9567134441 ], [ 16.7656233755, 48.9566023919 ], [ 16.7663214174, 48.9564596107 ], [ 16.7675112615, 48.9564437461 ], [ 16.7687328348, 48.9561423189 ], [ 16.7683362201, 48.9556981104 ], [ 16.7676064491, 48.9554601416 ], [ 16.7675905845, 48.9550000685 ], [ 16.7683520847, 48.9540481932 ], [ 16.7679078762, 48.9539054119 ], [ 16.766876678, 48.9551904436 ], [ 16.7657661568, 48.955364954 ], [ 16.7650046565, 48.9555394645 ], [ 16.7643542084, 48.9553808186 ] ] ] } },
{ "type": "Feature", "properties": { "id": 52, "dens": 35, "c": "I" }, "geometry": { "type": "Polygon", "coordinates": [ [ [ 16.7606847371, 48.9554738148 ], [ 16.7611244673, 48.9548219495 ], [ 16.7612441083, 48.95493887 ], [ 16.7618852887, 48.9548126878 ], [ 16.7619261374, 48.9545731986 ], [ 16.7610861032, 48.954095787 ], [ 16.759975582, 48.9536833077 ], [ 16.7592934047, 48.9535405264 ], [ 16.7592299463, 48.9529535366 ], [ 16.7581051858, 48.9528958246 ], [ 16.7579155916, 48.9530123486 ], [ 16.7578843662, 48.9534495035 ], [ 16.7577906902, 48.953761757 ], [ 16.7573896541, 48.9542544328 ], [ 16.7575165708, 48.9544765371 ], [ 16.7584525815, 48.9543972141 ], [ 16.7595631027, 48.9548096934 ], [ 16.7601482041, 48.9552761865 ], [ 16.7604916829, 48.9553698625 ], [ 16.7606847371, 48.9554738148 ] ] ] } },
{ "type": "Feature", "properties": { "id": 53, "dens": 30, "c": "I" }, "geometry": { "type": "Polygon", "coordinates": [ [ [ 16.7620529504, 48.9586172989 ], [ 16.7629263955, 48.9587123822 ], [ 16.7635866389, 48.9591618717 ], [ 16.7636298306, 48.9590076158 ], [ 16.7640357602, 48.9584611722 ], [ 16.7639889221, 48.9582582074 ], [ 16.7640201475, 48.9578522778 ], [ 16.7647984169, 48.9576335902 ], [ 16.7646556356, 48.9572052463 ], [ 16.7651315733, 48.9567134441 ], [ 16.7647508231, 48.9561581835 ], [ 16.7643542084, 48.9553808186 ], [ 16.7637354895, 48.9555711937 ], [ 16.7626566974, 48.9555077353 ], [ 16.7620538431, 48.9547303705 ], [ 16.7613716658, 48.9550635269 ], [ 16.7608976125, 48.95558844 ], [ 16.7616782462, 48.9563378484 ], [ 16.7617094716, 48.9567437779 ], [ 16.7615970653, 48.9571259594 ], [ 16.7613972181, 48.9577117638 ], [ 16.7616157955, 48.9584611722 ], [ 16.7620529504, 48.9586172989 ] ] ] } },
{ "type": "Feature", "properties": { "id": 54, "dens": 20, "c": "J" }, "geometry": { "type": "Polygon", "coordinates": [ [ [ 16.7615328555, 48.9599490074 ], [ 16.7620538431, 48.9600767368 ], [ 16.7624504578, 48.960108466 ], [ 16.7626408329, 48.9600767368 ], [ 16.7630691767, 48.9605685391 ], [ 16.7635517672, 48.9598038622 ], [ 16.7635356398, 48.9595942059 ], [ 16.7635205419, 48.9593979327 ], [ 16.7632598736, 48.9592735234 ], [ 16.763144516, 48.9590651676 ], [ 16.7624252869, 48.9586578315 ], [ 16.7620529504, 48.9586172989 ], [ 16.761928049, 48.9592105806 ], [ 16.7616157955, 48.9598038622 ], [ 16.7615328555, 48.9599490074 ] ] ] } },
{ "type": "Feature", "properties": { "id": 55, "dens": 25, "c": "I" }, "geometry": { "type": "Polygon", "coordinates": [ [ [ 16.7593409984, 48.9624564251 ], [ 16.7592616755, 48.9629640919 ], [ 16.7596424256, 48.963503488 ], [ 16.759960852, 48.9635196788 ], [ 16.7600495973, 48.9633421882 ], [ 16.7600826433, 48.9628694405 ], [ 16.760514978, 48.9627102585 ], [ 16.7608639989, 48.9628371752 ], [ 16.7613558012, 48.9624564251 ], [ 16.7617841451, 48.961996352 ], [ 16.7628470725, 48.960996883 ], [ 16.7630691767, 48.9605685391 ], [ 16.7626756801, 48.9605277742 ], [ 16.7624408382, 48.9603938464 ], [ 16.7620538431, 48.9600767368 ], [ 16.7615328555, 48.9599490074 ], [ 16.7611161899, 48.960678172 ], [ 16.7607414857, 48.9605220453 ], [ 16.7602106548, 48.9609592002 ], [ 16.7596173731, 48.9616773832 ], [ 16.7593409984, 48.9624564251 ] ] ] } },
{ "type": "Feature", "properties": { "id": 56, "dens": 20, "c": "J" }, "geometry": { "type": "Polygon", "coordinates": [ [ [ 16.7611495615, 48.9633131129 ], [ 16.7613082074, 48.9635510817 ], [ 16.7627201558, 48.9640270194 ], [ 16.7629272602, 48.9636445802 ], [ 16.7627685468, 48.9633985744 ], [ 16.7619903847, 48.9629323628 ], [ 16.7615303117, 48.9626626648 ], [ 16.7614351241, 48.9629482274 ], [ 16.76159377, 48.9631386024 ], [ 16.7611495615, 48.9633131129 ] ] ] } },
{ "type": "Feature", "properties": { "id": 57, "dens": 15, "c": "J" }, "geometry": { "type": "Polygon", "coordinates": [ [ [ 16.7490518297, 48.9479884666 ], [ 16.7494503938, 48.9482589208 ], [ 16.7502475222, 48.9485009062 ], [ 16.7505464453, 48.9483727963 ], [ 16.7506033831, 48.9475899024 ], [ 16.749421925, 48.9475614335 ], [ 16.7490518297, 48.9479884666 ] ] ] } },
{ "type": "Feature", "properties": { "id": 58, "dens": 5, "c": "J" }, "geometry": { "type": "Polygon", "coordinates": [ [ [ 16.7429594916, 48.9458675358 ], [ 16.7429452571, 48.9464226787 ], [ 16.7435146345, 48.9465223198 ], [ 16.7434576968, 48.9468781807 ], [ 16.7450804223, 48.9471344005 ], [ 16.7463045837, 48.9472625104 ], [ 16.7479700126, 48.9475044958 ], [ 16.7481835291, 48.9469066495 ], [ 16.7481550603, 48.9464226787 ], [ 16.7463330526, 48.9464369132 ], [ 16.7463181895, 48.9459457497 ], [ 16.7457748541, 48.945700168 ], [ 16.746019895, 48.9447999532 ], [ 16.7462761149, 48.9442448102 ], [ 16.7456640342, 48.9437750739 ], [ 16.744610686, 48.9436896673 ], [ 16.74362851, 48.9442732791 ], [ 16.7434719312, 48.9448568909 ], [ 16.7435146345, 48.945483206 ], [ 16.7431018359, 48.9456397848 ], [ 16.7429594916, 48.9458675358 ] ] ] } },
{ "type": "Feature", "properties": { "id": 59, "dens": 15, "c": "J" }, "geometry": { "type": "Polygon", "coordinates": [ [ [ 16.7399702602, 48.9453408617 ], [ 16.7399702602, 48.9453408617 ], [ 16.7391588975, 48.9448711253 ], [ 16.7385752856, 48.9444725612 ], [ 16.7384153606, 48.9448156943 ], [ 16.7385714873, 48.9449405957 ], [ 16.738540262, 48.9453152999 ], [ 16.7383651789, 48.9457311222 ], [ 16.738390238, 48.9462376311 ], [ 16.7392016008, 48.9464511476 ], [ 16.739699806, 48.9457251914 ], [ 16.7405965754, 48.94613799 ], [ 16.7408100919, 48.9458960047 ], [ 16.7400841357, 48.9454689716 ], [ 16.7399702602, 48.9453408617 ] ] ] } },
{ "type": "Feature", "properties": { "id": 60, "dens": 42, "c": "I" }, "geometry": { "type": "Polygon", "coordinates": [ [ [ 16.7318566324, 48.9427928979 ], [ 16.7316431159, 48.9430633521 ], [ 16.7319562734, 48.9431772276 ], [ 16.7323690721, 48.9437750739 ], [ 16.7329811528, 48.9432768686 ], [ 16.7339775632, 48.9426647879 ], [ 16.7344330651, 48.9423089271 ], [ 16.7341056731, 48.9421950516 ], [ 16.7333797169, 48.942437037 ], [ 16.7328103395, 48.9425509125 ], [ 16.7318566324, 48.9427928979 ] ] ] } },
{ "type": "Feature", "properties": { "id": 61, "dens": 36, "c": "I" }, "geometry": { "type": "Polygon", "coordinates": [ [ [ 16.7326110574, 48.9438889493 ], [ 16.7329526839, 48.9441167003 ], [ 16.7343334241, 48.9443302168 ], [ 16.7346178739, 48.9439463649 ], [ 16.7349989261, 48.9441963864 ], [ 16.7349129618, 48.9448897358 ], [ 16.7349084506, 48.9453681161 ], [ 16.7350054101, 48.9459030464 ], [ 16.7352871312, 48.9461664589 ], [ 16.7351447868, 48.9468070085 ], [ 16.7364401204, 48.9470347594 ], [ 16.7371660766, 48.9459671768 ], [ 16.7377923917, 48.9447572499 ], [ 16.7379774394, 48.944173638 ], [ 16.7382621281, 48.9438035427 ], [ 16.738162487, 48.9432483998 ], [ 16.7379205016, 48.9426647879 ], [ 16.7379774394, 48.9424512714 ], [ 16.7380355313, 48.942313736 ], [ 16.7377123711, 48.9421629279 ], [ 16.7370121908, 48.9419259438 ], [ 16.7368182947, 48.9419474878 ], [ 16.7358595863, 48.9416243277 ], [ 16.7352886701, 48.9415704677 ], [ 16.7348031604, 48.9423373959 ], [ 16.7338636877, 48.9429494766 ], [ 16.7326110574, 48.9438889493 ] ] ] } },
{ "type": "Feature", "properties": { "id": 62, "dens": 56, "c": "J" }, "geometry": { "type": "Polygon", "coordinates": [ [ [ 16.7326964641, 48.9442590446 ], [ 16.7331234971, 48.946365741 ], [ 16.733251607, 48.9470062906 ], [ 16.7344757684, 48.9468212429 ], [ 16.7346465816, 48.9465080854 ], [ 16.7347177538, 48.9455970815 ], [ 16.7342195486, 48.9444867956 ], [ 16.7336786401, 48.9443444513 ], [ 16.7326964641, 48.9442590446 ] ] ] } },
{ "type": "Feature", "properties": { "id": 63, "dens": 9, "c": "J" }, "geometry": { "type": "Polygon", "coordinates": [ [ [ 16.75796374, 48.9295596824 ], [ 16.7580714601, 48.9301629147 ], [ 16.7600319649, 48.9301198267 ], [ 16.7607644612, 48.9305399348 ], [ 16.7613784655, 48.9304537588 ], [ 16.7612922895, 48.9299797906 ], [ 16.7614538695, 48.9293550143 ], [ 16.7616369936, 48.928654834 ], [ 16.7605813372, 48.9283639899 ], [ 16.7594395047, 48.928590202 ], [ 16.7588793604, 48.9290641702 ], [ 16.7583730762, 48.9294842784 ], [ 16.75796374, 48.9295596824 ] ] ] } },
{ "type": "Feature", "properties": { "id": 64, "dens": 5, "c": "P" }, "geometry": { "type": "Polygon", "coordinates": [ [ [ 16.7495478293, 48.9308263165 ], [ 16.7500894045, 48.9313478352 ], [ 16.7508003569, 48.9310246751 ], [ 16.7509511649, 48.930852323 ], [ 16.7517375213, 48.9306691989 ], [ 16.7529547578, 48.9299797906 ], [ 16.7538919222, 48.9294196463 ], [ 16.7543228024, 48.9291180302 ], [ 16.7542150824, 48.9288595021 ], [ 16.7537842022, 48.92857943 ], [ 16.753482586, 48.9284609379 ], [ 16.7530193898, 48.9282885859 ], [ 16.7532779179, 48.9276530376 ], [ 16.7527824057, 48.9273406494 ], [ 16.7521857399, 48.9273294983 ], [ 16.7512697596, 48.9290226739 ], [ 16.7508434449, 48.9297428065 ], [ 16.7506603208, 48.9301090547 ], [ 16.7504664247, 48.9302921787 ], [ 16.7502497682, 48.9303583573 ], [ 16.7495478293, 48.9308263165 ] ] ] } },
{ "type": "Feature", "properties": { "id": 65, "dens": 6, "c": "P" }, "geometry": { "type": "Polygon", "coordinates": [ [ [ 16.7480066041, 48.9318538 ], [ 16.7482366197, 48.9320049275 ], [ 16.7484843758, 48.9319618395 ], [ 16.7489906601, 48.9317140834 ], [ 16.7496046643, 48.9315417313 ], [ 16.7499385965, 48.9314016952 ], [ 16.7493961927, 48.9309274076 ], [ 16.7480066041, 48.9318538 ] ] ] } },
{ "type": "Feature", "properties": { "id": 66, "dens": 10, "c": "P" }, "geometry": { "type": "Polygon", "coordinates": [ [ [ 16.7459206387, 48.9322742276 ], [ 16.7472025073, 48.9314663272 ], [ 16.7482904798, 48.9306476549 ], [ 16.7476549315, 48.9301521427 ], [ 16.7470193832, 48.9301521427 ], [ 16.7460929908, 48.9306045669 ], [ 16.7450265623, 48.9314232392 ], [ 16.7454789865, 48.9318218034 ], [ 16.7459206387, 48.9322742276 ] ] ] } },
{ "type": "Feature", "properties": { "id": 67, "dens": 18, "c": "P" }, "geometry": { "type": "Polygon", "coordinates": [ [ [ 16.7468362591, 48.9328882319 ], [ 16.7473209993, 48.933222164 ], [ 16.7480858117, 48.9327805118 ], [ 16.7476657035, 48.9324573517 ], [ 16.7469870672, 48.9326943358 ], [ 16.7468362591, 48.9328882319 ] ] ] } },
{ "type": "Feature", "properties": { "id": 68, "dens": 12, "c": "P" }, "geometry": { "type": "Polygon", "coordinates": [ [ [ 16.7451450544, 48.9337823083 ], [ 16.7455220745, 48.9341054684 ], [ 16.746523871, 48.9335991842 ], [ 16.7468578031, 48.9333298841 ], [ 16.7464053789, 48.9329205479 ], [ 16.7457375146, 48.9330067239 ], [ 16.7448434382, 48.9333191121 ], [ 16.7447464902, 48.9334483761 ], [ 16.7451450544, 48.9337823083 ] ] ] } },
{ "type": "Feature", "properties": { "id": 69, "dens": 17, "c": "P" }, "geometry": { "type": "Polygon", "coordinates": [ [ [ 16.7430445135, 48.935387337 ], [ 16.7437231498, 48.9350103168 ], [ 16.7441432579, 48.9346332966 ], [ 16.7446818582, 48.9342778205 ], [ 16.7446603142, 48.9339438883 ], [ 16.74426175, 48.9337392202 ], [ 16.7430983735, 48.9339008003 ], [ 16.741956541, 48.9341485564 ], [ 16.7416333808, 48.9343424525 ], [ 16.7430445135, 48.935387337 ] ] ] } },
{ "type": "Feature", "properties": { "id": 70, "dens": 32, "c": "P" }, "geometry": { "type": "Polygon", "coordinates": [ [ [ 16.7384448674, 48.9363675894 ], [ 16.7390265557, 48.9367446096 ], [ 16.7403299683, 48.9358720772 ], [ 16.7402761082, 48.9356889531 ], [ 16.7413425367, 48.9351503529 ], [ 16.7423012451, 48.935495057 ], [ 16.7430445135, 48.935387337 ], [ 16.7416333808, 48.9343424525 ], [ 16.7405884964, 48.9348595087 ], [ 16.7390480997, 48.9357859011 ], [ 16.7384448674, 48.9363675894 ] ] ] } },
{ "type": "Feature", "properties": { "id": 71, "dens": 27, "c": "I" }, "geometry": { "type": "Polygon", "coordinates": [ [ [ 16.7424951412, 48.9361952373 ], [ 16.7425490012, 48.9360013412 ], [ 16.7414933448, 48.9367122936 ], [ 16.7403407403, 48.9375201939 ], [ 16.7394358919, 48.9383819543 ], [ 16.7393712598, 48.9385758504 ], [ 16.7391235037, 48.9387805185 ], [ 16.7393712598, 48.9391359946 ], [ 16.7393604878, 48.9395668748 ], [ 16.7388972916, 48.9404932672 ], [ 16.7385418155, 48.9412365355 ], [ 16.7377123711, 48.9421629279 ], [ 16.7380355313, 48.942313736 ], [ 16.7383156034, 48.9420767519 ], [ 16.7387895716, 48.942238332 ], [ 16.7389726957, 48.9415381517 ], [ 16.7386818515, 48.9414196596 ], [ 16.7390373277, 48.9409241474 ], [ 16.7392204518, 48.9409241474 ], [ 16.7394897519, 48.9402885991 ], [ 16.73969442, 48.9395022428 ], [ 16.7398667721, 48.9392975747 ], [ 16.739683648, 48.9392006266 ], [ 16.739629788, 48.9390067306 ], [ 16.7398452281, 48.9387697465 ], [ 16.7401576162, 48.9389420985 ], [ 16.7404376883, 48.9385758504 ], [ 16.7400929842, 48.9383711823 ], [ 16.7410193766, 48.9373909298 ], [ 16.7414718008, 48.93771409 ], [ 16.742010401, 48.9372078058 ], [ 16.7416872409, 48.9370569977 ], [ 16.7424628252, 48.9363460454 ], [ 16.7424951412, 48.9361952373 ] ] ] } },
{ "type": "Feature", "properties": { "id": 72, "dens": 38, "c": "I" }, "geometry": { "type": "Polygon", "coordinates": [ [ [ 16.737540019, 48.9371324017 ], [ 16.7394358919, 48.9383819543 ], [ 16.7403407403, 48.9375201939 ], [ 16.7414933448, 48.9367122936 ], [ 16.7425490012, 48.9360013412 ], [ 16.7423335611, 48.9357428131 ], [ 16.7416226088, 48.9360121132 ], [ 16.7395328399, 48.9379187581 ], [ 16.7378416352, 48.9368846456 ], [ 16.737540019, 48.9371324017 ] ] ] } },
{ "type": "Feature", "properties": { "id": 73, "dens": 39, "c": "I" }, "geometry": { "type": "Polygon", "coordinates": [ [ [ 16.7369260148, 48.9381234262 ], [ 16.7366243986, 48.9384465863 ], [ 16.7367321187, 48.9385758504 ], [ 16.7361827464, 48.9390067306 ], [ 16.7362042905, 48.9392113986 ], [ 16.7365274506, 48.9395022428 ], [ 16.7366674867, 48.9396961389 ], [ 16.7369260148, 48.9397930869 ], [ 16.7373138069, 48.9394160667 ], [ 16.737540019, 48.9394806988 ], [ 16.7381432513, 48.9391036786 ], [ 16.7379924432, 48.9397284549 ], [ 16.7382832874, 48.939943895 ], [ 16.7378093192, 48.9407625673 ], [ 16.7372384029, 48.9416027837 ], [ 16.7370121908, 48.9419259438 ], [ 16.7377123711, 48.9421629279 ], [ 16.7385418155, 48.9412365355 ], [ 16.7388972916, 48.9404932672 ], [ 16.7393604878, 48.9395668748 ], [ 16.7393712598, 48.9391359946 ], [ 16.7391235037, 48.9387805185 ], [ 16.7393712598, 48.9385758504 ], [ 16.7386926235, 48.9380480221 ], [ 16.7378631792, 48.9374986499 ], [ 16.737464615, 48.9372293498 ], [ 16.7367967507, 48.93782181 ], [ 16.7369260148, 48.9381234262 ] ] ] } },
{ "type": "Feature", "properties": { "id": 74, "dens": 96, "c": "J" }, "geometry": { "type": "Polygon", "coordinates": [ [ [ 16.737486159, 48.9397715429 ], [ 16.737356895, 48.939933123 ], [ 16.737356895, 48.940073159 ], [ 16.737496931, 48.9401916511 ], [ 16.7376369671, 48.9402024231 ], [ 16.7377554591, 48.940127019 ], [ 16.7378200912, 48.940019299 ], [ 16.7378200912, 48.9398900349 ], [ 16.7377339151, 48.9398038589 ], [ 16.737486159, 48.9397715429 ] ] ] } },
{ "type": "Feature", "properties": { "id": 75, "dens": 56, "c": "J" }, "geometry": { "type": "Polygon", "coordinates": [ [ [ 16.7355041101, 48.9407625673 ], [ 16.7352886701, 48.9415704677 ], [ 16.7358595863, 48.9416243277 ], [ 16.7360211664, 48.9408056553 ], [ 16.7355041101, 48.9407625673 ] ] ] } },
{ "type": "Feature", "properties": { "id": 76, "dens": 50, "c": "B" }, "geometry": { "type": "Polygon", "coordinates": [ [ [ 16.7357949543, 48.9390713626 ], [ 16.7356872342, 48.9398361749 ], [ 16.7355041101, 48.9407625673 ], [ 16.7360211664, 48.9408056553 ], [ 16.7358595863, 48.9416243277 ], [ 16.7368182947, 48.9419474878 ], [ 16.737518475, 48.9410210954 ], [ 16.7376046511, 48.9407302513 ], [ 16.7365166786, 48.9406656193 ], [ 16.7364197305, 48.939933123 ], [ 16.7363766425, 48.9395453308 ], [ 16.7363658705, 48.9395453308 ], [ 16.7357949543, 48.9390713626 ] ] ] } },
{ "type": "Feature", "properties": { "id": 77, "dens": 22, "c": "J" }, "geometry": { "type": "Polygon", "coordinates": [ [ [ 16.7060636738, 48.9125330749 ], [ 16.7066078274, 48.9135609204 ], [ 16.7085224416, 48.9129361516 ], [ 16.7081193649, 48.9120292291 ], [ 16.7060636738, 48.9125330749 ] ] ] } },
{ "type": "Feature", "properties": { "id": 78, "dens": 25, "c": "P" }, "geometry": { "type": "Polygon", "coordinates": [ [ [ 16.7166041289, 48.9116463062 ], [ 16.7176521283, 48.9142663046 ], [ 16.719748127, 48.9139236895 ], [ 16.7201310498, 48.9145484583 ], [ 16.720473665, 48.9144275353 ], [ 16.7189419736, 48.9105378454 ], [ 16.7170878209, 48.9111223066 ], [ 16.7166041289, 48.9116463062 ] ] ] } },
{ "type": "Feature", "properties": { "id": 79, "dens": 36, "c": "P" }, "geometry": { "type": "Polygon", "coordinates": [ [ [ 16.7098525946, 48.9128555363 ], [ 16.7117672088, 48.9167452262 ], [ 16.7139639767, 48.9163219957 ], [ 16.7145832472, 48.9171941291 ], [ 16.7158566077, 48.9170109151 ], [ 16.7151732067, 48.9153949193 ], [ 16.7167250519, 48.9147298428 ], [ 16.7150925914, 48.9110819989 ], [ 16.7132585925, 48.9114850756 ], [ 16.7132989002, 48.9120090752 ], [ 16.7123315162, 48.9124927673 ], [ 16.7113641321, 48.9125532288 ], [ 16.7103765943, 48.9122710751 ], [ 16.7097719793, 48.9125330749 ], [ 16.7098525946, 48.9128555363 ] ] ] } },
{ "type": "Feature", "properties": { "id": 80, "dens": 36, "c": "P" }, "geometry": { "type": "Polygon", "coordinates": [ [ [ 16.7086836722, 48.9136818435 ], [ 16.7094696718, 48.9156972268 ], [ 16.7084418262, 48.9160196882 ], [ 16.7087239799, 48.9164429187 ], [ 16.7082201341, 48.9166041494 ], [ 16.7081999802, 48.9168258415 ], [ 16.7093487487, 48.9169266107 ], [ 16.7092076719, 48.916402611 ], [ 16.7095502871, 48.9162010727 ], [ 16.7107796709, 48.9171079952 ], [ 16.711263363, 48.9170273799 ], [ 16.7096309024, 48.9133795359 ], [ 16.7086836722, 48.9136818435 ] ] ] } },
{ "type": "Feature", "properties": { "id": 81, "dens": 26, "c": "P" }, "geometry": { "type": "Polygon", "coordinates": [ [ [ 16.7049149053, 48.9149313811 ], [ 16.7051769051, 48.9154150732 ], [ 16.7064667505, 48.9155763038 ], [ 16.7075752114, 48.9155359962 ], [ 16.7085224416, 48.9152941502 ], [ 16.7083410571, 48.9143066123 ], [ 16.7081596726, 48.9139236895 ], [ 16.70725275, 48.9141453816 ], [ 16.7061039815, 48.9145484583 ], [ 16.7049149053, 48.9149313811 ] ] ] } },
{ "type": "Feature", "properties": { "id": 82, "dens": 26, "c": "P" }, "geometry": { "type": "Polygon", "coordinates": [ [ [ 16.69973537, 48.9160801497 ], [ 16.6998159854, 48.9167250724 ], [ 16.7036653676, 48.916644457 ], [ 16.7043677754, 48.9170528419 ], [ 16.7059199103, 48.916827518 ], [ 16.7078372112, 48.9168258415 ], [ 16.7080387496, 48.9162212265 ], [ 16.7056605972, 48.9159592267 ], [ 16.7056001357, 48.9156569192 ], [ 16.7014685997, 48.9158383037 ], [ 16.6998361392, 48.9159390728 ], [ 16.69973537, 48.9160801497 ] ] ] } }
]
}
